{
  "files": {
    "main.css": "/static/css/main.ec323a84.chunk.css",
    "main.js": "/static/js/main.4ff4dd55.chunk.js",
    "main.js.map": "/static/js/main.4ff4dd55.chunk.js.map",
    "runtime-main.js": "/static/js/runtime-main.c46c322c.js",
    "runtime-main.js.map": "/static/js/runtime-main.c46c322c.js.map",
    "static/js/2.c642f030.chunk.js": "/static/js/2.c642f030.chunk.js",
    "static/js/2.c642f030.chunk.js.map": "/static/js/2.c642f030.chunk.js.map",
    "static/js/3.5787610c.chunk.js": "/static/js/3.5787610c.chunk.js",
    "static/js/3.5787610c.chunk.js.map": "/static/js/3.5787610c.chunk.js.map",
    "index.html": "/index.html",
    "static/css/main.ec323a84.chunk.css.map": "/static/css/main.ec323a84.chunk.css.map",
    "static/js/2.c642f030.chunk.js.LICENSE.txt": "/static/js/2.c642f030.chunk.js.LICENSE.txt"
  },
  "entrypoints": [
    "static/js/runtime-main.c46c322c.js",
    "static/js/2.c642f030.chunk.js",
    "static/css/main.ec323a84.chunk.css",
    "static/js/main.4ff4dd55.chunk.js"
  ]
}